<svg viewBox="0 0 24 24" xmlns="http://www.w3.org/2000/svg">
	<path
		fill="#2C3E50"
		d="M12 16v-1.5c0-.8.7-1.5 1.5-1.5h6c.8 0 1.5.7 1.5 1.5v4c0 .8-.7 1.5-1.5 1.5h-1a.5.5 0 1 1 0 1h-4a.5.5 0 1 1 0-1h-1c-.8 0-1.5-.7-1.5-1.5V17h-1.5a.5.5 0 1 1 0-1H12Zm-5-5H5.5a.5.5 0 1 1 0-1h-1C3.7 10 3 9.3 3 8.5v-4C3 3.7 3.7 3 4.5 3h6c.8 0 1.5.7 1.5 1.5v4c0 .8-.7 1.5-1.5 1.5h-1a.5.5 0 1 1 0 1H8v2.5a.5.5 0 1 1-1 0V11Zm.5 4.8L9.1 14a.5.5 0 0 1 .8.8l-1.7 1.6 1.7 1.6a.5.5 0 0 1-.8.8l-1.6-1.7L5.9 19A.5.5 0 0 1 5 18l1.7-1.6L5 14.9A.5.5 0 0 1 6 14l1.6 1.7ZM4 4.5v4c0 .3.2.5.5.5h6c.3 0 .5-.2.5-.5v-4c0-.3-.2-.5-.5-.5h-6c-.3 0-.5.2-.5.5Zm9 10v4c0 .3.2.5.5.5h6c.3 0 .5-.2.5-.5v-4c0-.3-.2-.5-.5-.5h-6c-.3 0-.5.2-.5.5Z" />
</svg>
