<svg xmlns="http://www.w3.org/2000/svg" viewBox="0 0 128 128">
	<path
		d="M105 10c8 0 14 4 14 13v82c-1 12-7 12-13 13H54c-10-1-15-5-16-14V24c1-6 3-11 8-13l59-1z"
		fill="#fff"
		stroke="#000"
	/>
	<path
		d="M130 124l-17 80c-3 12-10 11-16 11H60l1-78c0-6 2-10 8-12l61-1z"
		transform="translate(-22 -114)"
		opacity=".3"
	/>
	<path
		d="M47 106h61M47 96h60M47 86h61M47 76h60M46 65h60M46 55h60M46 45h60M46 35h60"
		stroke="#646464"
		stroke-width="1.5"
	/>
	<path
		d="M15 81c-11-3-8-9-5-15l24-48c2-4 8-7 12-7h60c4 1 9 1 4 7L83 72c-1 6-8 9-12 9H15z"
		fill="#5fd5d4"
		stroke="#000"
	/>
	<path d="M43 28h46M37 36h45" stroke="#171718" stroke-width="3" />
	<g fill="#26272a">
		<path transform="matrix(2.04511 0 0 1.47368 -150.1 -174)" d="M123 129l-1 1-1-1 1-1 1 1z" />
		<path transform="matrix(2.04511 0 0 1.47368 -160.1 -174)" d="M123 129l-1 1-1-1 1-1 1 1z" />
		<path transform="matrix(2.04511 0 0 1.47368 -171.1 -174)" d="M123 129l-1 1-1-1 1-1 1 1z" />
		<path transform="matrix(2.04511 0 0 1.47368 -182.1 -174)" d="M123 129l-1 1-1-1 1-1 1 1z" />
		<path transform="matrix(2.04511 0 0 1.47368 -193.2 -174)" d="M123 129l-1 1-1-1 1-1 1 1z" />
		<path transform="matrix(2.04511 0 0 1.47368 -204.2 -174)" d="M123 129l-1 1-1-1 1-1 1 1z" />
	</g>
	<g fill="none" stroke="#838382" stroke-width="2">
		<path d="M46 16c-7-7 3-14 4-5.5" />
		<path d="M57 16c-7-7 4-14 5-5.7" />
		<path d="M68 16c-7-8 3-14 4-5.98" />
		<path d="M79 16c-7-7 3-13 4-6.1" />
		<path d="M90 16c-7-7 3-13 4-6.3" />
		<path d="M100 16c-7-7 3-14 4-6.4" />
	</g>
</svg>
