<svg xmlns="http://www.w3.org/2000/svg" viewBox="5 5 38 38">
	<path fill="#CFD8DC" d="M41 6h-34C6.4 6 6 6.4 6 7v35h36v-35C42 6.4 41.6 6 41 6z" />
	<rect x="8" y="13" fill="#263238" width="32" height="27" />
	<g fill="#90A4AE">
		<circle cx="13.5" cy="9.5" r="1.5" />
		<circle cx="9.5" cy="9.5" r="1.5" />
	</g>
	<path d="M18.5 26.5l-3.5-2v-2.5l6 3.4v2.1l-6 3.49v-2.5zM23 29h10v2h-10z" fill="#20e840" />
</svg>
