<svg xmlns="http://www.w3.org/2000/svg" xmlns:xlink="http://www.w3.org/1999/xlink" viewBox="0 0 128 128">
	<linearGradient id="odt-grad-a">
		<stop offset="0" stop-color="#666"/>
		<stop offset="1" stop-color="#333"/>
	</linearGradient>
	<linearGradient id="odt-grad-b">
		<stop offset="0" stop-color="#0369a3"/>
		<stop offset="1" stop-color="#1c99e0"/>
	</linearGradient>
	<linearGradient id="odt-grad-c" gradientUnits="userSpaceOnUse" x1="108" x2="20" xlink:href="#odt-grad-b" y1="130" y2="14"/>
	<linearGradient id="odt-grad-d" gradientTransform="matrix(4.19983 0 0 3.9111 -1393 -4522)" gradientUnits="userSpaceOnUse" x2="0" xlink:href="#odt-grad-a" y1="1173" y2="1178"/>
	<path d="M17 0c-4 1-5 2-5 6v116c0 4 2 6 6 6h92c4 0 6-2 6-6V50l-2-6L72 2l-6-2H17zm70 0c-3 1-4 5-2 7l24 24c2 2 7 0 7-3V4c0-2-2-4-4-4H87z" fill="url(#odt-grad-c)"/>
	<path d="M18 6v116h92V50L66 6z" fill="#F5F5F5"/>
	<path d="M31 56v4h18v-4zm22 0v28h42V56zm3 3h36v22H56zm-25 5v4h18v-4zm0 8v4h18v-4zm0 8v4h18v-4zm0 8v4h64v-4zm0 8v4h64v-4zm0 8v4h42v-4z" fill="url(#odt-grad-c)"/>
	<path d="M56 59h36v22H56z" fill="#63bbee"/>
	<path d="M82 65c3 1 7 6 10 9v3H64c5-6 12-9 18-12z" fill="url(#odt-grad-d)"/>
	<path d="M74 72v-2l3-1 2-2 3-1-1 2-1 2-1 3v1z" fill="#333"/>
	<path d="M75 71c-4-3-6-6-8-10h-1l-5 8-5 6v2h28l-9-6z" fill="url(#odt-grad-d)"/>
	<path d="M92 75h-2l-6 1-8-2-5 1-4-1-5 1-1-1-5 1v6h36v-6z" fill="#106802"/>
	<path d="M58 74l2-3 2-3 2-2 2-3-2 3-1 3v2l-1 2h-2z" fill="#333"/>
	<g fill="gray">
		<path d="M92 74l-2-1-2-2-3-3-2-2v2l2 3 1 3 1 1 3-1h2z"/>
		<path d="M75 74l-2-3-3-3-2-4-1-1 1 3 1 3 1 3v2h5z"/>
		<path d="M78 74l-2-1-1-1 1 2z"/>
	</g>
	<g fill="#666">
		<path d="M80 73l1-3 1-2v-2l1 2 1 2 1 2v2l1 1h-2l-5-1 1-1z"/>
		<path d="M63 74l1-4 1-3 1-2v-2l1 2v2l1 2 1 2v2h-3l-1 1h-2z"/>
	</g>
	<path d="M57 77l-1 4h30v-1l-1-1-6-2H67l-7 1z" fill="#0369a3"/>
	<path d="M69 80l1-1h5l4 1 1 1h-2z" fill="#1c99e0" opacity=".5"/>
	<path d="M92 65c-3 0-6-3-6-6h6z" fill="#d0eb47"/>
</svg>
