<svg xmlns="http://www.w3.org/2000/svg" viewBox="0 0 18 18">
	<circle cx="9" cy="9" r="8" stroke="#27aa35" stroke-width="1" fill="#33c748" />
	<g fill="#0b650d">
		<path d="m13 5v6l-6 -6h6z" />
		<path d="m5 13v-6l6 6h-6z" />
	</g>
</svg>
