<svg xmlns="http://www.w3.org/2000/svg" viewBox="0 0 256 256">
	<path
		d="m9 44v147l25-69a5 5 0 014-3h57l24-25a5 5 0 013-1h88V61H87a5 5 0 01-5-5V44H9zM124 102h121l-33 110H11l30-84h56a5 5 0 003-1l24-25z"
		fill="#E6C887"
		stroke="#333"
	/>
</svg>
